6.3 Examples | Energy Data Analysis with R
…
This dataset can now be considered tidy and is ready for further processing.

library(tsibble)

# convert the data frame in a tsibble object
tsbl <- as_tsibble(df.separated, key = c(flat, sensor), index = time)
tsbl

## # A tsibble: 131,602 x 4 [1h] <Europe/Zurich>
## # Key:       flat, sensor [8]
##    time                flat  sensor value
##    <dttm>              <chr> <chr>  <dbl>
##  1 2018-10-03 00:00:00 A     Hum     53  
##  2 2018-10-03 01:00:00 A     Hum     53  
##  3 2018-10-03 02:00:00 A     Hum     53  
##  4 2018-10-03 03:00:00 A     Hum     53  
##  5 2018-10-03 04:00:00 A     Hum     53.3
##  6 2018-10-03 05:00:00 A     Hum     53.7
##  7 2018-10-03 06:00:00 A     Hum     50.8
##  8 2018-10-03 08:00:00 A     Hum     42.7
##  9 2018-10-03 09:00:00 A     Hum     46  
## 10 2018-10-03 10:00:00 A     Hum     41.3
## # ... with 131,592 more rows
